module zabbix.com

go 1.19

require (
	git.zabbix.com/ap/plugin-support v1.2.2-0.20240118133248-deb0a6afb1b9
	github.com/BurntSushi/locker v0.0.0-20171006230638-a6e239ea1c69
	github.com/DATA-DOG/go-sqlmock v1.5.0
	github.com/Microsoft/go-winio v0.6.1
	github.com/chromedp/cdproto v0.0.0-20230220211738-2b1ec77315c9
	github.com/chromedp/chromedp v0.8.7
	github.com/dustin/gomemcached v0.0.0-20160817010731-a2284a01c143
	github.com/eclipse/paho.mqtt.golang v1.4.2
	github.com/fsnotify/fsnotify v1.5.4
	github.com/go-ldap/ldap v3.0.3+incompatible
	github.com/go-ole/go-ole v1.2.6
	github.com/go-sql-driver/mysql v1.7.1
	github.com/goburrow/modbus v0.1.0
	github.com/godbus/dbus/v5 v5.1.0
	github.com/godror/godror v0.34.0
	github.com/google/go-cmp v0.6.0
	github.com/mattn/go-sqlite3 v1.14.15
	github.com/mediocregopher/radix/v3 v3.8.1
	github.com/memcachier/mc/v3 v3.0.3
	github.com/miekg/dns v1.1.50
	github.com/omeid/go-yarn v0.0.1
	github.com/sokurenko/go-netstat v1.0.0
	golang.org/x/net v0.18.0
	golang.org/x/sys v0.14.0
	golang.org/x/text v0.14.0
)

require (
	github.com/chromedp/sysutil v1.0.0 // indirect
	github.com/go-logfmt/logfmt v0.5.1 // indirect
	github.com/go-logr/logr v1.2.3 // indirect
	github.com/goburrow/serial v0.1.0 // indirect
	github.com/gobwas/httphead v0.1.0 // indirect
	github.com/gobwas/pool v0.2.1 // indirect
	github.com/gobwas/ws v1.1.0 // indirect
	github.com/godror/knownpb v0.1.0 // indirect
	github.com/gorilla/websocket v1.4.2 // indirect
	github.com/josharian/intern v1.0.0 // indirect
	github.com/mailru/easyjson v0.7.7 // indirect
	golang.org/x/mod v0.12.0 // indirect
	golang.org/x/sync v0.3.0 // indirect
	golang.org/x/tools v0.11.0 // indirect
	golang.org/x/xerrors v0.0.0-20220907171357-04be3eba64a2 // indirect
	google.golang.org/protobuf v1.27.1 // indirect
	gopkg.in/asn1-ber.v1 v1.0.0-20181015200546-f715ec2f112d // indirect
)
